<?xml version="1.0" encoding="UTF-8" standalone="no"?>
<!-- Created with Inkscape (http://www.inkscape.org/) -->

<svg
   width="69.849915mm"
   height="69.849915mm"
   viewBox="0 0 69.849915 69.849915"
   version="1.1"
   id="svg5"
   sodipodi:docname="qr_flash-party.svg.svg"
   inkscape:version="1.1.2 (0a00cf5339, 2022-02-04)"
   xmlns:inkscape="http://www.inkscape.org/namespaces/inkscape"
   xmlns:sodipodi="http://sodipodi.sourceforge.net/DTD/sodipodi-0.dtd"
   xmlns="http://www.w3.org/2000/svg"
   xmlns:svg="http://www.w3.org/2000/svg">
  <sodipodi:namedview
     id="namedview7"
     pagecolor="#ffffff"
     bordercolor="#666666"
     borderopacity="1.0"
     inkscape:pageshadow="2"
     inkscape:pageopacity="0.0"
     inkscape:pagecheckerboard="0"
     inkscape:document-units="mm"
     showgrid="false"
     inkscape:zoom="0.3121896"
     inkscape:cx="483.68042"
     inkscape:cy="680.67609"
     inkscape:window-width="3440"
     inkscape:window-height="1352"
     inkscape:window-x="0"
     inkscape:window-y="0"
     inkscape:window-maximized="1"
     inkscape:current-layer="layer2"
     lock-margins="true"
     fit-margin-top="0"
     fit-margin-left="0"
     fit-margin-right="0"
     fit-margin-bottom="0" />
  <defs
     id="defs2" />
  <g
     inkscape:label="Calque 1"
     inkscape:groupmode="layer"
     id="layer1"
     style="display:none"
     transform="translate(-3.0598759,-15.617298)">
    <g
       inkscape:label="QR Code: https://jdll.org/install-party/"
       transform="matrix(0.264583,0,0,0.264583,104.984,148.5)"
       id="g836">
      <rect
         x="0"
         y="0"
         width="264"
         height="264"
         style="fill:#ffffff;stroke:none"
         id="rect830" />
      <g
         style="fill:#000000;stroke:none"
         id="g834">
        <path
           d="m 228.4,232 h -0.8 c -1.98823,0 -3.6,-1.61178 -3.6,-3.6 v -0.8 c 0,-1.98823 -1.61178,-3.6 -3.6,-3.6 h -8.8 c -1.98823,0 -3.6,-1.61178 -3.6,-3.6 v -0.8 c 0,-1.98823 -1.61178,-3.6 -3.6,-3.6 h -0.8 c -1.98823,0 -3.6,1.61177 -3.6,3.6 v 0.8 c 0,1.98822 -1.61178,3.6 -3.6,3.6 h -8.8 c -1.98823,0 -3.6,-1.61178 -3.6,-3.6 v -0.8 c 0,-1.98823 1.61177,-3.6 3.6,-3.6 h 0.8 c 1.98822,0 3.6,-1.61178 3.6,-3.6 v -0.8 c 0,-1.98823 1.61177,-3.6 3.6,-3.6 h 16.8 c 1.98822,0 3.6,-1.61178 3.6,-3.6 v -16.8 c 0,-1.98823 1.61177,-3.6 3.6,-3.6 h 0.8 c 1.98822,0 3.6,1.61177 3.6,3.6 v 8.8 c 0,1.98822 1.61177,3.6 3.6,3.6 h 0.8 c 1.98822,0 3.6,1.61177 3.6,3.6 v 24.8 c 0,1.98822 -1.61178,3.6 -3.6,3.6 z m -24,0 h -0.8 c -1.98823,0 -3.6,-1.61178 -3.6,-3.6 v -0.8 c 0,-1.98823 1.61177,-3.6 3.6,-3.6 h 0.8 c 1.98822,0 3.6,1.61177 3.6,3.6 v 0.8 c 0,1.98822 -1.61178,3.6 -3.6,3.6 z m -24,0 h -24.8 c -1.98823,0 -3.6,-1.61178 -3.6,-3.6 v -0.8 c 0,-1.98823 1.61177,-3.6 3.6,-3.6 h 24.8 c 1.98822,0 3.6,1.61177 3.6,3.6 v 0.8 c 0,1.98822 -1.61178,3.6 -3.6,3.6 z m -48,0 h -0.8 c -1.98823,0 -3.6,-1.61178 -3.6,-3.6 v -0.8 c 0,-1.98823 1.61177,-3.6 3.6,-3.6 h 0.8 c 1.98822,0 3.6,1.61177 3.6,3.6 v 0.8 c 0,1.98822 -1.61178,3.6 -3.6,3.6 z m -16,0 h -0.8 c -1.98823,0 -3.6,-1.61178 -3.6,-3.6 v -0.8 c 0,-1.98823 1.61177,-3.6 3.6,-3.6 h 0.8 c 1.98823,0 3.6,1.61177 3.6,3.6 v 0.8 c 0,1.98822 -1.61177,3.6 -3.6,3.6 z m -16,0 h -0.8 c -1.988225,0 -3.6,-1.61178 -3.6,-3.6 v -8.8 c 0,-1.98823 1.611775,-3.6 3.6,-3.6 h 0.8 c 1.98823,0 3.6,-1.61178 3.6,-3.6 v -0.8 c 0,-1.98823 1.61177,-3.6 3.6,-3.6 h 0.8 c 1.98823,0 3.6,1.61177 3.6,3.6 v 8.8 c 0,1.98822 -1.61177,3.6 -3.6,3.6 h -0.8 c -1.98823,0 -3.6,1.61177 -3.6,3.6 v 0.8 c 0,1.98822 -1.61177,3.6 -3.6,3.6 z m -16,0 H 35.6 c -1.988225,0 -3.6,-1.61178 -3.6,-3.6 v -48.8 c 0,-1.98823 1.611775,-3.6 3.6,-3.6 h 48.8 c 1.988225,0 3.6,1.61177 3.6,3.6 v 48.8 c 0,1.98822 -1.611775,3.6 -3.6,3.6 z m 40,-8 h -0.8 c -1.98823,0 -3.6,-1.61178 -3.6,-3.6 v -24.8 c 0,-1.98823 1.61177,-3.6 3.6,-3.6 h 8.8 c 1.98822,0 3.6,1.61177 3.6,3.6 v 0.8 c 0,1.98822 1.61177,3.6 3.6,3.6 h 0.8 c 1.98822,0 3.6,-1.61178 3.6,-3.6 v -0.8 c 0,-1.98823 1.61177,-3.6 3.6,-3.6 h 0.8 c 1.98822,0 3.6,-1.61178 3.6,-3.6 v -0.8 c 0,-1.98823 1.61177,-3.6 3.6,-3.6 h 0.8 c 1.98822,0 3.6,-1.61178 3.6,-3.6 v -16.8 c 0,-1.98823 1.61177,-3.6 3.6,-3.6 h 8.8 c 1.98822,0 3.6,-1.61178 3.6,-3.6 v -0.8 c 0,-1.98823 1.61177,-3.6 3.6,-3.6 h 8.8 c 1.98822,0 3.6,1.61177 3.6,3.6 v 0.8 c 0,1.98822 1.61177,3.6 3.6,3.6 h 0.8 c 1.98822,0 3.6,1.61177 3.6,3.6 v 32.8 c 0,1.98822 -1.61178,3.6 -3.6,3.6 h -8.8 c -1.98823,0 -3.6,1.61177 -3.6,3.6 v 0.8 c 0,1.98822 -1.61178,3.6 -3.6,3.6 h -0.8 c -1.98823,0 -3.6,1.61177 -3.6,3.6 v 0.8 c 0,1.98822 -1.61178,3.6 -3.6,3.6 h -8.8 c -1.98823,0 -3.6,-1.61178 -3.6,-3.6 v -0.8 c 0,-1.98823 1.61177,-3.6 3.6,-3.6 h 0.8 c 1.98822,0 3.6,-1.61178 3.6,-3.6 v -0.8 c 0,-1.98823 -1.61178,-3.6 -3.6,-3.6 h -8.8 c -1.98823,0 -3.6,1.61177 -3.6,3.6 v 0.8 c 0,1.98822 -1.61178,3.6 -3.6,3.6 h -8.8 c -1.98823,0 -3.6,1.61177 -3.6,3.6 v 0.8 c 0,1.98822 -1.61178,3.6 -3.6,3.6 h -0.8 c -1.98823,0 -3.6,1.61177 -3.6,3.6 v 0.8 c 0,1.98822 -1.61177,3.6 -3.6,3.6 z M 80,220.4 V 187.6 C 80,185.61177 78.388225,184 76.4,184 H 43.6 c -1.988225,0 -3.6,1.61177 -3.6,3.6 v 32.8 c 0,1.98822 1.611775,3.6 3.6,3.6 h 32.8 c 1.988225,0 3.6,-1.61178 3.6,-3.6 z M 68.4,216 H 51.6 c -1.988225,0 -3.6,-1.61178 -3.6,-3.6 v -16.8 c 0,-1.98823 1.611775,-3.6 3.6,-3.6 h 16.8 c 1.988225,0 3.6,1.61177 3.6,3.6 v 16.8 c 0,1.98822 -1.611775,3.6 -3.6,3.6 z m 32,-8 h -0.8 c -1.988225,0 -3.6,-1.61178 -3.6,-3.6 v -8.8 c 0,-1.98823 1.611775,-3.6 3.6,-3.6 h 0.8 c 1.98823,0 3.6,1.61177 3.6,3.6 v 8.8 c 0,1.98822 -1.61177,3.6 -3.6,3.6 z M 192,188.4 v -16.8 c 0,-1.98823 -1.61178,-3.6 -3.6,-3.6 h -16.8 c -1.98823,0 -3.6,1.61177 -3.6,3.6 v 16.8 c 0,1.98822 1.61177,3.6 3.6,3.6 h 16.8 c 1.98822,0 3.6,-1.61178 3.6,-3.6 z m -51.6,3.6 h -0.8 c -1.98823,0 -3.6,-1.61178 -3.6,-3.6 v -8.8 c 0,-1.98823 1.61177,-3.6 3.6,-3.6 h 8.8 c 1.98822,0 3.6,1.61177 3.6,3.6 v 0.8 c 0,1.98822 -1.61178,3.6 -3.6,3.6 h -0.8 c -1.98823,0 -3.6,1.61177 -3.6,3.6 v 0.8 c 0,1.98822 -1.61178,3.6 -3.6,3.6 z m -24,0 h -0.8 c -1.98823,0 -3.6,-1.61178 -3.6,-3.6 v -0.8 c 0,-1.98823 1.61177,-3.6 3.6,-3.6 h 0.8 c 1.98823,0 3.6,1.61177 3.6,3.6 v 0.8 c 0,1.98822 -1.61177,3.6 -3.6,3.6 z m 112,-8 h -0.8 c -1.98823,0 -3.6,-1.61178 -3.6,-3.6 v -0.8 c 0,-1.98823 1.61177,-3.6 3.6,-3.6 h 0.8 c 1.98822,0 3.6,1.61177 3.6,3.6 v 0.8 c 0,1.98822 -1.61178,3.6 -3.6,3.6 z m -48,0 h -0.8 c -1.98823,0 -3.6,-1.61178 -3.6,-3.6 v -0.8 c 0,-1.98823 1.61177,-3.6 3.6,-3.6 h 0.8 c 1.98822,0 3.6,1.61177 3.6,3.6 v 0.8 c 0,1.98822 -1.61178,3.6 -3.6,3.6 z m -56,0 h -0.8 c -1.98823,0 -3.6,-1.61178 -3.6,-3.6 v -0.8 c 0,-1.98823 1.61177,-3.6 3.6,-3.6 h 0.8 c 1.98823,0 3.6,1.61177 3.6,3.6 v 0.8 c 0,1.98822 -1.61177,3.6 -3.6,3.6 z m 96,-8 h -8.8 c -1.98823,0 -3.6,-1.61178 -3.6,-3.6 v -8.8 c 0,-1.98823 -1.61178,-3.6 -3.6,-3.6 h -0.8 c -1.98823,0 -3.6,-1.61178 -3.6,-3.6 v -0.8 c 0,-1.98823 -1.61178,-3.6 -3.6,-3.6 h -0.8 c -1.98823,0 -3.6,-1.61178 -3.6,-3.6 v -8.8 c 0,-1.98823 1.61177,-3.6 3.6,-3.6 h 0.8 c 1.98822,0 3.6,1.61177 3.6,3.6 v 0.8 c 0,1.98822 1.61177,3.6 3.6,3.6 h 8.8 c 1.98822,0 3.6,-1.61178 3.6,-3.6 v -0.8 c 0,-1.98823 1.61177,-3.6 3.6,-3.6 h 0.8 c 1.98822,0 3.6,1.61177 3.6,3.6 v 0.8 c 0,1.98822 1.61177,3.6 3.6,3.6 h 0.8 c 1.98822,0 3.6,1.61177 3.6,3.6 v 8.8 c 0,1.98822 -1.61178,3.6 -3.6,3.6 h -0.8 c -1.98823,0 -3.6,-1.61178 -3.6,-3.6 v -0.8 c 0,-1.98823 -1.61178,-3.6 -3.6,-3.6 h -0.8 c -1.98823,0 -3.6,1.61177 -3.6,3.6 v 0.8 c 0,1.98822 1.61177,3.6 3.6,3.6 h 0.8 c 1.98822,0 3.6,1.61177 3.6,3.6 v 8.8 c 0,1.98822 -1.61178,3.6 -3.6,3.6 z m -112,0 h -8.8 c -1.988225,0 -3.6,-1.61178 -3.6,-3.6 v -0.8 c 0,-1.98823 1.611775,-3.6 3.6,-3.6 h 8.8 c 1.98823,0 3.6,1.61177 3.6,3.6 v 0.8 c 0,1.98822 -1.61177,3.6 -3.6,3.6 z m 32,-8 h -0.8 c -1.98823,0 -3.6,-1.61178 -3.6,-3.6 v -0.8 c 0,-1.98823 1.61177,-3.6 3.6,-3.6 h 0.8 c 1.98822,0 3.6,1.61177 3.6,3.6 v 0.8 c 0,1.98822 -1.61178,3.6 -3.6,3.6 z m -16,0 h -0.8 c -1.98823,0 -3.6,-1.61178 -3.6,-3.6 v -0.8 c 0,-1.98823 1.61177,-3.6 3.6,-3.6 h 0.8 c 1.98823,0 3.6,1.61177 3.6,3.6 v 0.8 c 0,1.98822 -1.61177,3.6 -3.6,3.6 z m -40,0 H 59.6 c -1.988225,0 -3.6,-1.61178 -3.6,-3.6 v -0.8 c 0,-1.98823 1.611775,-3.6 3.6,-3.6 h 24.8 c 1.988225,0 3.6,1.61177 3.6,3.6 v 0.8 c 0,1.98822 -1.611775,3.6 -3.6,3.6 z m -48,0 h -0.8 c -1.988225,0 -3.6,-1.61178 -3.6,-3.6 v -40.8 c 0,-1.98823 1.611775,-3.6 3.6,-3.6 h 0.8 c 1.988225,0 3.6,1.61177 3.6,3.6 v 16.8 c 0,1.98822 1.611775,3.6 3.6,3.6 h 0.8 c 1.988225,0 3.6,1.61177 3.6,3.6 v 0.8 c 0,1.98822 -1.611775,3.6 -3.6,3.6 h -0.8 c -1.988225,0 -3.6,1.61177 -3.6,3.6 v 8.8 c 0,1.98822 -1.611775,3.6 -3.6,3.6 z m 120,-8 h -8.8 c -1.98823,0 -3.6,-1.61178 -3.6,-3.6 v -0.8 c 0,-1.98823 -1.61178,-3.6 -3.6,-3.6 h -0.8 c -1.98823,0 -3.6,1.61177 -3.6,3.6 v 0.8 c 0,1.98822 -1.61178,3.6 -3.6,3.6 h -0.8 c -1.98823,0 -3.6,-1.61178 -3.6,-3.6 v -8.8 c 0,-1.98823 1.61177,-3.6 3.6,-3.6 h 0.8 c 1.98822,0 3.6,-1.61178 3.6,-3.6 v -0.8 c 0,-1.98823 1.61177,-3.6 3.6,-3.6 h 0.8 c 1.98822,0 3.6,1.61177 3.6,3.6 v 0.8 c 0,1.98822 1.61177,3.6 3.6,3.6 h 0.8 c 1.98822,0 3.6,-1.61178 3.6,-3.6 v -8.8 c 0,-1.98823 -1.61178,-3.6 -3.6,-3.6 h -0.8 c -1.98823,0 -3.6,-1.61177 -3.6,-3.6 v -0.8 c 0,-1.98823 -1.61178,-3.6 -3.6,-3.6 h -0.8 c -1.98823,0 -3.6,-1.61177 -3.6,-3.6 v -0.8 c 0,-1.98823 1.61177,-3.6 3.6,-3.6 h 8.8 c 1.98822,0 3.6,-1.61177 3.6,-3.6 v -0.8 c 0,-1.98823 -1.61178,-3.6 -3.6,-3.6 h -0.8 c -1.98823,0 -3.6,-1.61177 -3.6,-3.6 v -0.8 c 0,-1.988225 -1.61178,-3.6 -3.6,-3.6 h -16.8 c -1.98823,0 -3.6,1.611775 -3.6,3.6 v 0.8 c 0,1.98823 1.61177,3.6 3.6,3.6 h 0.8 c 1.98823,0 3.6,1.61177 3.6,3.6 v 8.8 c 0,1.98823 1.61177,3.6 3.6,3.6 h 0.8 c 1.98822,0 3.6,1.61177 3.6,3.6 v 8.8 c 0,1.98822 -1.61178,3.6 -3.6,3.6 h -0.8 c -1.98823,0 -3.6,1.61177 -3.6,3.6 v 0.8 c 0,1.98822 -1.61177,3.6 -3.6,3.6 h -0.8 c -1.98823,0 -3.6,-1.61178 -3.6,-3.6 v -8.8 c 0,-1.98823 -1.61177,-3.6 -3.6,-3.6 h -0.8 c -1.98823,0 -3.6,1.61177 -3.6,3.6 v 0.8 c 0,1.98822 -1.61177,3.6 -3.6,3.6 h -0.8 c -1.98823,0 -3.6,-1.61178 -3.6,-3.6 v -0.8 c 0,-1.98823 -1.61177,-3.6 -3.6,-3.6 h -0.8 c -1.988225,0 -3.6,1.61177 -3.6,3.6 v 0.8 c 0,1.98822 1.611775,3.6 3.6,3.6 h 0.8 c 1.98823,0 3.6,1.61177 3.6,3.6 v 8.8 c 0,1.98822 1.61177,3.6 3.6,3.6 h 0.8 c 1.98823,0 3.6,1.61177 3.6,3.6 v 0.8 c 0,1.98822 -1.61177,3.6 -3.6,3.6 h -8.8 c -1.988225,0 -3.6,-1.61178 -3.6,-3.6 v -8.8 c 0,-1.98823 -1.611775,-3.6 -3.6,-3.6 h -0.8 c -1.988225,0 -3.6,-1.61178 -3.6,-3.6 v -0.8 c 0,-1.98823 -1.611775,-3.6 -3.6,-3.6 h -0.8 c -1.988225,0 -3.6,-1.61178 -3.6,-3.6 v -0.8 c 0,-1.98823 1.611775,-3.6 3.6,-3.6 h 0.8 c 1.988225,0 3.6,-1.61177 3.6,-3.6 v -0.8 c 0,-1.98823 -1.611775,-3.6 -3.6,-3.6 h -8.8 c -1.988225,0 -3.6,-1.61177 -3.6,-3.6 v -0.8 c 0,-1.98823 -1.611775,-3.6 -3.6,-3.6 h -0.8 c -1.988225,0 -3.6,-1.61177 -3.6,-3.6 v -0.8 C 64,105.61177 62.388225,104 60.4,104 H 59.6 C 57.611775,104 56,102.38823 56,100.4 V 99.6 C 56,97.611775 57.611775,96 59.6,96 h 8.8 c 1.988225,0 3.6,1.611775 3.6,3.6 v 0.8 c 0,1.98823 1.611775,3.6 3.6,3.6 h 0.8 c 1.988225,0 3.6,1.61177 3.6,3.6 v 0.8 c 0,1.98823 1.611775,3.6 3.6,3.6 h 8.8 c 1.988225,0 3.6,1.61177 3.6,3.6 v 0.8 c 0,1.98823 1.611775,3.6 3.6,3.6 h 8.8 c 1.98823,0 3.6,-1.61177 3.6,-3.6 v -0.8 c 0,-1.98823 -1.61177,-3.6 -3.6,-3.6 h -8.8 c -1.988225,0 -3.6,-1.61177 -3.6,-3.6 v -0.8 c 0,-1.98823 1.611775,-3.6 3.6,-3.6 h 0.8 c 1.98823,0 3.6,-1.61177 3.6,-3.6 v -0.8 c 0,-1.988225 1.61177,-3.6 3.6,-3.6 h 0.8 c 1.98823,0 3.6,-1.611775 3.6,-3.6 v -8.8 c 0,-1.988225 1.61177,-3.6 3.6,-3.6 h 0.8 c 1.98823,0 3.6,1.611775 3.6,3.6 v 0.8 c 0,1.988225 1.61177,3.6 3.6,3.6 h 0.8 c 1.98823,0 3.6,-1.611775 3.6,-3.6 v -0.8 c 0,-1.988225 -1.61177,-3.6 -3.6,-3.6 h -0.8 c -1.98823,0 -3.6,-1.611775 -3.6,-3.6 v -0.8 c 0,-1.988225 1.61177,-3.6 3.6,-3.6 h 8.8 c 1.98822,0 3.6,-1.611775 3.6,-3.6 V 51.6 c 0,-1.988225 -1.61178,-3.6 -3.6,-3.6 h -0.8 c -1.98823,0 -3.6,-1.611775 -3.6,-3.6 v -0.8 c 0,-1.988225 1.61177,-3.6 3.6,-3.6 h 8.8 c 1.98822,0 3.6,-1.611775 3.6,-3.6 v -0.8 c 0,-1.988225 1.61177,-3.6 3.6,-3.6 h 0.8 c 1.98822,0 3.6,1.611775 3.6,3.6 v 16.8 c 0,1.988225 -1.61178,3.6 -3.6,3.6 h -0.8 c -1.98823,0 -3.6,1.611775 -3.6,3.6 v 0.8 c 0,1.988225 1.61177,3.6 3.6,3.6 h 0.8 c 1.98822,0 3.6,1.611775 3.6,3.6 v 16.8 c 0,1.988225 1.61177,3.6 3.6,3.6 h 0.8 c 1.98822,0 3.6,-1.611775 3.6,-3.6 v -0.8 c 0,-1.988225 1.61177,-3.6 3.6,-3.6 h 0.8 c 1.98822,0 3.6,1.611775 3.6,3.6 v 16.8 c 0,1.98823 -1.61178,3.6 -3.6,3.6 h -0.8 c -1.98823,0 -3.6,1.61177 -3.6,3.6 v 8.8 c 0,1.98823 1.61177,3.6 3.6,3.6 h 8.8 c 1.98822,0 3.6,-1.61177 3.6,-3.6 v -0.8 c 0,-1.98823 1.61177,-3.6 3.6,-3.6 h 0.8 c 1.98822,0 3.6,1.61177 3.6,3.6 v 8.8 c 0,1.98823 1.61177,3.6 3.6,3.6 h 0.8 c 1.98822,0 3.6,1.61177 3.6,3.6 v 0.8 c 0,1.98822 -1.61178,3.6 -3.6,3.6 h -8.8 c -1.98823,0 -3.6,-1.61178 -3.6,-3.6 v -0.8 c 0,-1.98823 -1.61178,-3.6 -3.6,-3.6 h -8.8 c -1.98823,0 -3.6,1.61177 -3.6,3.6 v 0.8 c 0,1.98822 1.61177,3.6 3.6,3.6 h 0.8 c 1.98822,0 3.6,1.61177 3.6,3.6 v 0.8 c 0,1.98822 -1.61178,3.6 -3.6,3.6 h -0.8 c -1.98823,0 -3.6,1.61177 -3.6,3.6 v 8.8 c 0,1.98822 -1.61178,3.6 -3.6,3.6 z m -104,0 h -0.8 c -1.988225,0 -3.6,-1.61178 -3.6,-3.6 v -0.8 c 0,-1.98823 1.611775,-3.6 3.6,-3.6 h 0.8 c 1.988225,0 3.6,1.61177 3.6,3.6 v 0.8 c 0,1.98822 -1.611775,3.6 -3.6,3.6 z m 120,-8 h -0.8 c -1.98823,0 -3.6,-1.61178 -3.6,-3.6 v -0.8 c 0,-1.98823 1.61177,-3.6 3.6,-3.6 h 0.8 c 1.98822,0 3.6,1.61177 3.6,3.6 v 0.8 c 0,1.98822 -1.61178,3.6 -3.6,3.6 z m -56,0 h -0.8 c -1.98823,0 -3.6,-1.61178 -3.6,-3.6 v -0.8 c 0,-1.98823 1.61177,-3.6 3.6,-3.6 h 0.8 c 1.98823,0 3.6,1.61177 3.6,3.6 v 0.8 c 0,1.98822 -1.61177,3.6 -3.6,3.6 z m -32,0 H 59.6 c -1.988225,0 -3.6,-1.61178 -3.6,-3.6 v -0.8 c 0,-1.98823 1.611775,-3.6 3.6,-3.6 h 0.8 c 1.988225,0 3.6,-1.61178 3.6,-3.6 v -16.8 c 0,-1.98823 1.611775,-3.6 3.6,-3.6 h 0.8 c 1.988225,0 3.6,1.61177 3.6,3.6 v 16.8 c 0,1.98822 1.611775,3.6 3.6,3.6 h 8.8 c 1.988225,0 3.6,1.61177 3.6,3.6 v 0.8 c 0,1.98822 -1.611775,3.6 -3.6,3.6 z m -32,-8 h -0.8 c -1.988225,0 -3.6,-1.61178 -3.6,-3.6 v -8.8 c 0,-1.98823 1.611775,-3.6 3.6,-3.6 h 0.8 c 1.988225,0 3.6,1.61177 3.6,3.6 v 8.8 c 0,1.98822 -1.611775,3.6 -3.6,3.6 z m 176,-8 h -0.8 c -1.98823,0 -3.6,-1.61178 -3.6,-3.6 v -0.8 c 0,-1.98823 -1.61178,-3.6 -3.6,-3.6 h -24.8 c -1.98823,0 -3.6,-1.61177 -3.6,-3.6 v -0.8 c 0,-1.98823 1.61177,-3.6 3.6,-3.6 h 0.8 c 1.98822,0 3.6,-1.61177 3.6,-3.6 v -0.8 c 0,-1.98823 -1.61178,-3.6 -3.6,-3.6 h -8.8 c -1.98823,0 -3.6,-1.61177 -3.6,-3.6 v -0.8 c 0,-1.98823 1.61177,-3.6 3.6,-3.6 h 32.8 c 1.98822,0 3.6,1.61177 3.6,3.6 v 0.8 c 0,1.98823 -1.61178,3.6 -3.6,3.6 h -8.8 c -1.98823,0 -3.6,1.61177 -3.6,3.6 v 0.8 c 0,1.98823 1.61177,3.6 3.6,3.6 h 8.8 c 1.98822,0 3.6,-1.61177 3.6,-3.6 v -0.8 c 0,-1.98823 1.61177,-3.6 3.6,-3.6 h 0.8 c 1.98822,0 3.6,1.61177 3.6,3.6 v 16.8 c 0,1.98822 -1.61178,3.6 -3.6,3.6 z m -168,-16 h -8.8 c -1.988225,0 -3.6,-1.61177 -3.6,-3.6 v -0.8 c 0,-1.98823 1.611775,-3.6 3.6,-3.6 h 8.8 c 1.988225,0 3.6,1.61177 3.6,3.6 v 0.8 c 0,1.98823 -1.611775,3.6 -3.6,3.6 z m -24,-8 H 35.6 C 33.611775,112 32,110.38823 32,108.4 V 99.6 C 32,97.611775 33.611775,96 35.6,96 h 8.8 c 1.988225,0 3.6,1.611775 3.6,3.6 v 0.8 c 0,1.98823 -1.611775,3.6 -3.6,3.6 h -0.8 c -1.988225,0 -3.6,1.61177 -3.6,3.6 v 0.8 c 0,1.98823 -1.611775,3.6 -3.6,3.6 z m 192,-8 h -0.8 c -1.98823,0 -3.6,-1.61177 -3.6,-3.6 v -0.8 c 0,-1.988225 1.61177,-3.6 3.6,-3.6 h 0.8 c 1.98822,0 3.6,1.611775 3.6,3.6 v 0.8 c 0,1.98823 -1.61178,3.6 -3.6,3.6 z m -48,0 h -0.8 c -1.98823,0 -3.6,-1.61177 -3.6,-3.6 v -0.8 c 0,-1.988225 1.61177,-3.6 3.6,-3.6 h 0.8 c 1.98822,0 3.6,1.611775 3.6,3.6 v 0.8 c 0,1.98823 -1.61178,3.6 -3.6,3.6 z m -96,0 H 83.6 C 81.611775,104 80,102.38823 80,100.4 V 99.6 C 80,97.611775 81.611775,96 83.6,96 h 0.8 c 1.988225,0 3.6,1.611775 3.6,3.6 v 0.8 c 0,1.98823 -1.611775,3.6 -3.6,3.6 z m 16,-8 H 99.6 C 97.611775,96 96,94.388225 96,92.4 V 83.6 C 96,81.611775 97.611775,80 99.6,80 h 0.8 c 1.98823,0 3.6,1.611775 3.6,3.6 v 8.8 c 0,1.988225 -1.61177,3.6 -3.6,3.6 z m 128,-8 H 179.6 C 177.61177,88 176,86.388225 176,84.4 V 35.6 c 0,-1.988225 1.61177,-3.6 3.6,-3.6 h 48.8 c 1.98822,0 3.6,1.611775 3.6,3.6 v 48.8 c 0,1.988225 -1.61178,3.6 -3.6,3.6 z M 144,84.4 v -0.8 c 0,-1.988225 -1.61178,-3.6 -3.6,-3.6 h -0.8 c -1.98823,0 -3.6,1.611775 -3.6,3.6 v 0.8 c 0,1.988225 1.61177,3.6 3.6,3.6 h 0.8 c 1.98822,0 3.6,-1.611775 3.6,-3.6 z M 84.4,88 H 35.6 C 33.611775,88 32,86.388225 32,84.4 V 35.6 C 32,33.611775 33.611775,32 35.6,32 h 48.8 c 1.988225,0 3.6,1.611775 3.6,3.6 V 84.4 C 88,86.388225 86.388225,88 84.4,88 Z M 224,76.4 V 43.6 c 0,-1.988225 -1.61178,-3.6 -3.6,-3.6 h -32.8 c -1.98823,0 -3.6,1.611775 -3.6,3.6 v 32.8 c 0,1.988225 1.61177,3.6 3.6,3.6 h 32.8 c 1.98822,0 3.6,-1.611775 3.6,-3.6 z M 108.4,80 h -0.8 c -1.98823,0 -3.6,-1.611775 -3.6,-3.6 v -0.8 c 0,-1.988225 1.61177,-3.6 3.6,-3.6 h 0.8 c 1.98823,0 3.6,1.611775 3.6,3.6 v 0.8 c 0,1.988225 -1.61177,3.6 -3.6,3.6 z M 80,76.4 V 43.6 C 80,41.611775 78.388225,40 76.4,40 H 43.6 C 41.611775,40 40,41.611775 40,43.6 v 32.8 c 0,1.988225 1.611775,3.6 3.6,3.6 H 76.4 C 78.388225,80 80,78.388225 80,76.4 Z M 212.4,72 H 195.6 C 193.61177,72 192,70.388225 192,68.4 V 51.6 c 0,-1.988225 1.61177,-3.6 3.6,-3.6 h 16.8 c 1.98822,0 3.6,1.611775 3.6,3.6 v 16.8 c 0,1.988225 -1.61178,3.6 -3.6,3.6 z m -144,0 H 51.6 C 49.611775,72 48,70.388225 48,68.4 V 51.6 C 48,49.611775 49.611775,48 51.6,48 h 16.8 c 1.988225,0 3.6,1.611775 3.6,3.6 v 16.8 c 0,1.988225 -1.611775,3.6 -3.6,3.6 z m 96,-8 h -8.8 c -1.98823,0 -3.6,-1.611775 -3.6,-3.6 v -0.8 c 0,-1.988225 1.61177,-3.6 3.6,-3.6 h 8.8 c 1.98822,0 3.6,1.611775 3.6,3.6 v 0.8 c 0,1.988225 -1.61178,3.6 -3.6,3.6 z m -48,0 h -8.8 c -1.98823,0 -3.6,-1.611775 -3.6,-3.6 v -8.8 c 0,-1.988225 1.61177,-3.6 3.6,-3.6 h 0.8 c 1.98823,0 3.6,1.611775 3.6,3.6 v 0.8 c 0,1.988225 1.61177,3.6 3.6,3.6 h 0.8 c 1.98823,0 3.6,1.611775 3.6,3.6 v 0.8 c 0,1.988225 -1.61177,3.6 -3.6,3.6 z m 48,-16 h -0.8 c -1.98823,0 -3.6,-1.611775 -3.6,-3.6 v -0.8 c 0,-1.988225 1.61177,-3.6 3.6,-3.6 h 0.8 c 1.98822,0 3.6,1.611775 3.6,3.6 v 0.8 c 0,1.988225 -1.61178,3.6 -3.6,3.6 z m -64,-8 H 99.6 C 97.611775,40 96,38.388225 96,36.4 V 35.6 C 96,33.611775 97.611775,32 99.6,32 h 0.8 c 1.98823,0 3.6,1.611775 3.6,3.6 v 0.8 c 0,1.988225 -1.61177,3.6 -3.6,3.6 z"
           id="path832" />
      </g>
    </g>
    <g
       inkscape:label="QR Code: https://jdll.org/install-party/"
       transform="matrix(0.264583,0,0,0.264583,104.984,148.5)"
       id="g882">
      <rect
         x="0"
         y="0"
         width="264"
         height="264"
         style="fill:#ffffff;stroke:none"
         id="rect876" />
      <g
         style="fill:#000000;stroke:none"
         id="g880">
        <path
           d="m 228.4,232 h -0.8 c -1.98823,0 -3.6,-1.61178 -3.6,-3.6 v -0.8 c 0,-1.98823 -1.61178,-3.6 -3.6,-3.6 h -8.8 c -1.98823,0 -3.6,-1.61178 -3.6,-3.6 v -0.8 c 0,-1.98823 -1.61178,-3.6 -3.6,-3.6 h -0.8 c -1.98823,0 -3.6,1.61177 -3.6,3.6 v 0.8 c 0,1.98822 -1.61178,3.6 -3.6,3.6 h -8.8 c -1.98823,0 -3.6,-1.61178 -3.6,-3.6 v -0.8 c 0,-1.98823 1.61177,-3.6 3.6,-3.6 h 0.8 c 1.98822,0 3.6,-1.61178 3.6,-3.6 v -0.8 c 0,-1.98823 1.61177,-3.6 3.6,-3.6 h 16.8 c 1.98822,0 3.6,-1.61178 3.6,-3.6 v -16.8 c 0,-1.98823 1.61177,-3.6 3.6,-3.6 h 0.8 c 1.98822,0 3.6,1.61177 3.6,3.6 v 8.8 c 0,1.98822 1.61177,3.6 3.6,3.6 h 0.8 c 1.98822,0 3.6,1.61177 3.6,3.6 v 24.8 c 0,1.98822 -1.61178,3.6 -3.6,3.6 z m -24,0 h -0.8 c -1.98823,0 -3.6,-1.61178 -3.6,-3.6 v -0.8 c 0,-1.98823 1.61177,-3.6 3.6,-3.6 h 0.8 c 1.98822,0 3.6,1.61177 3.6,3.6 v 0.8 c 0,1.98822 -1.61178,3.6 -3.6,3.6 z m -24,0 h -24.8 c -1.98823,0 -3.6,-1.61178 -3.6,-3.6 v -0.8 c 0,-1.98823 1.61177,-3.6 3.6,-3.6 h 24.8 c 1.98822,0 3.6,1.61177 3.6,3.6 v 0.8 c 0,1.98822 -1.61178,3.6 -3.6,3.6 z m -48,0 h -0.8 c -1.98823,0 -3.6,-1.61178 -3.6,-3.6 v -0.8 c 0,-1.98823 1.61177,-3.6 3.6,-3.6 h 0.8 c 1.98822,0 3.6,1.61177 3.6,3.6 v 0.8 c 0,1.98822 -1.61178,3.6 -3.6,3.6 z m -16,0 h -0.8 c -1.98823,0 -3.6,-1.61178 -3.6,-3.6 v -0.8 c 0,-1.98823 1.61177,-3.6 3.6,-3.6 h 0.8 c 1.98823,0 3.6,1.61177 3.6,3.6 v 0.8 c 0,1.98822 -1.61177,3.6 -3.6,3.6 z m -16,0 h -0.8 c -1.988225,0 -3.6,-1.61178 -3.6,-3.6 v -8.8 c 0,-1.98823 1.611775,-3.6 3.6,-3.6 h 0.8 c 1.98823,0 3.6,-1.61178 3.6,-3.6 v -0.8 c 0,-1.98823 1.61177,-3.6 3.6,-3.6 h 0.8 c 1.98823,0 3.6,1.61177 3.6,3.6 v 8.8 c 0,1.98822 -1.61177,3.6 -3.6,3.6 h -0.8 c -1.98823,0 -3.6,1.61177 -3.6,3.6 v 0.8 c 0,1.98822 -1.61177,3.6 -3.6,3.6 z m -16,0 H 35.6 c -1.988225,0 -3.6,-1.61178 -3.6,-3.6 v -48.8 c 0,-1.98823 1.611775,-3.6 3.6,-3.6 h 48.8 c 1.988225,0 3.6,1.61177 3.6,3.6 v 48.8 c 0,1.98822 -1.611775,3.6 -3.6,3.6 z m 40,-8 h -0.8 c -1.98823,0 -3.6,-1.61178 -3.6,-3.6 v -24.8 c 0,-1.98823 1.61177,-3.6 3.6,-3.6 h 8.8 c 1.98822,0 3.6,1.61177 3.6,3.6 v 0.8 c 0,1.98822 1.61177,3.6 3.6,3.6 h 0.8 c 1.98822,0 3.6,-1.61178 3.6,-3.6 v -0.8 c 0,-1.98823 1.61177,-3.6 3.6,-3.6 h 0.8 c 1.98822,0 3.6,-1.61178 3.6,-3.6 v -0.8 c 0,-1.98823 1.61177,-3.6 3.6,-3.6 h 0.8 c 1.98822,0 3.6,-1.61178 3.6,-3.6 v -16.8 c 0,-1.98823 1.61177,-3.6 3.6,-3.6 h 8.8 c 1.98822,0 3.6,-1.61178 3.6,-3.6 v -0.8 c 0,-1.98823 1.61177,-3.6 3.6,-3.6 h 8.8 c 1.98822,0 3.6,1.61177 3.6,3.6 v 0.8 c 0,1.98822 1.61177,3.6 3.6,3.6 h 0.8 c 1.98822,0 3.6,1.61177 3.6,3.6 v 32.8 c 0,1.98822 -1.61178,3.6 -3.6,3.6 h -8.8 c -1.98823,0 -3.6,1.61177 -3.6,3.6 v 0.8 c 0,1.98822 -1.61178,3.6 -3.6,3.6 h -0.8 c -1.98823,0 -3.6,1.61177 -3.6,3.6 v 0.8 c 0,1.98822 -1.61178,3.6 -3.6,3.6 h -8.8 c -1.98823,0 -3.6,-1.61178 -3.6,-3.6 v -0.8 c 0,-1.98823 1.61177,-3.6 3.6,-3.6 h 0.8 c 1.98822,0 3.6,-1.61178 3.6,-3.6 v -0.8 c 0,-1.98823 -1.61178,-3.6 -3.6,-3.6 h -8.8 c -1.98823,0 -3.6,1.61177 -3.6,3.6 v 0.8 c 0,1.98822 -1.61178,3.6 -3.6,3.6 h -8.8 c -1.98823,0 -3.6,1.61177 -3.6,3.6 v 0.8 c 0,1.98822 -1.61178,3.6 -3.6,3.6 h -0.8 c -1.98823,0 -3.6,1.61177 -3.6,3.6 v 0.8 c 0,1.98822 -1.61177,3.6 -3.6,3.6 z M 80,220.4 V 187.6 C 80,185.61177 78.388225,184 76.4,184 H 43.6 c -1.988225,0 -3.6,1.61177 -3.6,3.6 v 32.8 c 0,1.98822 1.611775,3.6 3.6,3.6 h 32.8 c 1.988225,0 3.6,-1.61178 3.6,-3.6 z M 68.4,216 H 51.6 c -1.988225,0 -3.6,-1.61178 -3.6,-3.6 v -16.8 c 0,-1.98823 1.611775,-3.6 3.6,-3.6 h 16.8 c 1.988225,0 3.6,1.61177 3.6,3.6 v 16.8 c 0,1.98822 -1.611775,3.6 -3.6,3.6 z m 32,-8 h -0.8 c -1.988225,0 -3.6,-1.61178 -3.6,-3.6 v -8.8 c 0,-1.98823 1.611775,-3.6 3.6,-3.6 h 0.8 c 1.98823,0 3.6,1.61177 3.6,3.6 v 8.8 c 0,1.98822 -1.61177,3.6 -3.6,3.6 z M 192,188.4 v -16.8 c 0,-1.98823 -1.61178,-3.6 -3.6,-3.6 h -16.8 c -1.98823,0 -3.6,1.61177 -3.6,3.6 v 16.8 c 0,1.98822 1.61177,3.6 3.6,3.6 h 16.8 c 1.98822,0 3.6,-1.61178 3.6,-3.6 z m -51.6,3.6 h -0.8 c -1.98823,0 -3.6,-1.61178 -3.6,-3.6 v -8.8 c 0,-1.98823 1.61177,-3.6 3.6,-3.6 h 8.8 c 1.98822,0 3.6,1.61177 3.6,3.6 v 0.8 c 0,1.98822 -1.61178,3.6 -3.6,3.6 h -0.8 c -1.98823,0 -3.6,1.61177 -3.6,3.6 v 0.8 c 0,1.98822 -1.61178,3.6 -3.6,3.6 z m -24,0 h -0.8 c -1.98823,0 -3.6,-1.61178 -3.6,-3.6 v -0.8 c 0,-1.98823 1.61177,-3.6 3.6,-3.6 h 0.8 c 1.98823,0 3.6,1.61177 3.6,3.6 v 0.8 c 0,1.98822 -1.61177,3.6 -3.6,3.6 z m 112,-8 h -0.8 c -1.98823,0 -3.6,-1.61178 -3.6,-3.6 v -0.8 c 0,-1.98823 1.61177,-3.6 3.6,-3.6 h 0.8 c 1.98822,0 3.6,1.61177 3.6,3.6 v 0.8 c 0,1.98822 -1.61178,3.6 -3.6,3.6 z m -48,0 h -0.8 c -1.98823,0 -3.6,-1.61178 -3.6,-3.6 v -0.8 c 0,-1.98823 1.61177,-3.6 3.6,-3.6 h 0.8 c 1.98822,0 3.6,1.61177 3.6,3.6 v 0.8 c 0,1.98822 -1.61178,3.6 -3.6,3.6 z m -56,0 h -0.8 c -1.98823,0 -3.6,-1.61178 -3.6,-3.6 v -0.8 c 0,-1.98823 1.61177,-3.6 3.6,-3.6 h 0.8 c 1.98823,0 3.6,1.61177 3.6,3.6 v 0.8 c 0,1.98822 -1.61177,3.6 -3.6,3.6 z m 96,-8 h -8.8 c -1.98823,0 -3.6,-1.61178 -3.6,-3.6 v -8.8 c 0,-1.98823 -1.61178,-3.6 -3.6,-3.6 h -0.8 c -1.98823,0 -3.6,-1.61178 -3.6,-3.6 v -0.8 c 0,-1.98823 -1.61178,-3.6 -3.6,-3.6 h -0.8 c -1.98823,0 -3.6,-1.61178 -3.6,-3.6 v -8.8 c 0,-1.98823 1.61177,-3.6 3.6,-3.6 h 0.8 c 1.98822,0 3.6,1.61177 3.6,3.6 v 0.8 c 0,1.98822 1.61177,3.6 3.6,3.6 h 8.8 c 1.98822,0 3.6,-1.61178 3.6,-3.6 v -0.8 c 0,-1.98823 1.61177,-3.6 3.6,-3.6 h 0.8 c 1.98822,0 3.6,1.61177 3.6,3.6 v 0.8 c 0,1.98822 1.61177,3.6 3.6,3.6 h 0.8 c 1.98822,0 3.6,1.61177 3.6,3.6 v 8.8 c 0,1.98822 -1.61178,3.6 -3.6,3.6 h -0.8 c -1.98823,0 -3.6,-1.61178 -3.6,-3.6 v -0.8 c 0,-1.98823 -1.61178,-3.6 -3.6,-3.6 h -0.8 c -1.98823,0 -3.6,1.61177 -3.6,3.6 v 0.8 c 0,1.98822 1.61177,3.6 3.6,3.6 h 0.8 c 1.98822,0 3.6,1.61177 3.6,3.6 v 8.8 c 0,1.98822 -1.61178,3.6 -3.6,3.6 z m -112,0 h -8.8 c -1.988225,0 -3.6,-1.61178 -3.6,-3.6 v -0.8 c 0,-1.98823 1.611775,-3.6 3.6,-3.6 h 8.8 c 1.98823,0 3.6,1.61177 3.6,3.6 v 0.8 c 0,1.98822 -1.61177,3.6 -3.6,3.6 z m 32,-8 h -0.8 c -1.98823,0 -3.6,-1.61178 -3.6,-3.6 v -0.8 c 0,-1.98823 1.61177,-3.6 3.6,-3.6 h 0.8 c 1.98822,0 3.6,1.61177 3.6,3.6 v 0.8 c 0,1.98822 -1.61178,3.6 -3.6,3.6 z m -16,0 h -0.8 c -1.98823,0 -3.6,-1.61178 -3.6,-3.6 v -0.8 c 0,-1.98823 1.61177,-3.6 3.6,-3.6 h 0.8 c 1.98823,0 3.6,1.61177 3.6,3.6 v 0.8 c 0,1.98822 -1.61177,3.6 -3.6,3.6 z m -40,0 H 59.6 c -1.988225,0 -3.6,-1.61178 -3.6,-3.6 v -0.8 c 0,-1.98823 1.611775,-3.6 3.6,-3.6 h 24.8 c 1.988225,0 3.6,1.61177 3.6,3.6 v 0.8 c 0,1.98822 -1.611775,3.6 -3.6,3.6 z m -48,0 h -0.8 c -1.988225,0 -3.6,-1.61178 -3.6,-3.6 v -40.8 c 0,-1.98823 1.611775,-3.6 3.6,-3.6 h 0.8 c 1.988225,0 3.6,1.61177 3.6,3.6 v 16.8 c 0,1.98822 1.611775,3.6 3.6,3.6 h 0.8 c 1.988225,0 3.6,1.61177 3.6,3.6 v 0.8 c 0,1.98822 -1.611775,3.6 -3.6,3.6 h -0.8 c -1.988225,0 -3.6,1.61177 -3.6,3.6 v 8.8 c 0,1.98822 -1.611775,3.6 -3.6,3.6 z m 120,-8 h -8.8 c -1.98823,0 -3.6,-1.61178 -3.6,-3.6 v -0.8 c 0,-1.98823 -1.61178,-3.6 -3.6,-3.6 h -0.8 c -1.98823,0 -3.6,1.61177 -3.6,3.6 v 0.8 c 0,1.98822 -1.61178,3.6 -3.6,3.6 h -0.8 c -1.98823,0 -3.6,-1.61178 -3.6,-3.6 v -8.8 c 0,-1.98823 1.61177,-3.6 3.6,-3.6 h 0.8 c 1.98822,0 3.6,-1.61178 3.6,-3.6 v -0.8 c 0,-1.98823 1.61177,-3.6 3.6,-3.6 h 0.8 c 1.98822,0 3.6,1.61177 3.6,3.6 v 0.8 c 0,1.98822 1.61177,3.6 3.6,3.6 h 0.8 c 1.98822,0 3.6,-1.61178 3.6,-3.6 v -8.8 c 0,-1.98823 -1.61178,-3.6 -3.6,-3.6 h -0.8 c -1.98823,0 -3.6,-1.61177 -3.6,-3.6 v -0.8 c 0,-1.98823 -1.61178,-3.6 -3.6,-3.6 h -0.8 c -1.98823,0 -3.6,-1.61177 -3.6,-3.6 v -0.8 c 0,-1.98823 1.61177,-3.6 3.6,-3.6 h 8.8 c 1.98822,0 3.6,-1.61177 3.6,-3.6 v -0.8 c 0,-1.98823 -1.61178,-3.6 -3.6,-3.6 h -0.8 c -1.98823,0 -3.6,-1.61177 -3.6,-3.6 v -0.8 c 0,-1.988225 -1.61178,-3.6 -3.6,-3.6 h -16.8 c -1.98823,0 -3.6,1.611775 -3.6,3.6 v 0.8 c 0,1.98823 1.61177,3.6 3.6,3.6 h 0.8 c 1.98823,0 3.6,1.61177 3.6,3.6 v 8.8 c 0,1.98823 1.61177,3.6 3.6,3.6 h 0.8 c 1.98822,0 3.6,1.61177 3.6,3.6 v 8.8 c 0,1.98822 -1.61178,3.6 -3.6,3.6 h -0.8 c -1.98823,0 -3.6,1.61177 -3.6,3.6 v 0.8 c 0,1.98822 -1.61177,3.6 -3.6,3.6 h -0.8 c -1.98823,0 -3.6,-1.61178 -3.6,-3.6 v -8.8 c 0,-1.98823 -1.61177,-3.6 -3.6,-3.6 h -0.8 c -1.98823,0 -3.6,1.61177 -3.6,3.6 v 0.8 c 0,1.98822 -1.61177,3.6 -3.6,3.6 h -0.8 c -1.98823,0 -3.6,-1.61178 -3.6,-3.6 v -0.8 c 0,-1.98823 -1.61177,-3.6 -3.6,-3.6 h -0.8 c -1.988225,0 -3.6,1.61177 -3.6,3.6 v 0.8 c 0,1.98822 1.611775,3.6 3.6,3.6 h 0.8 c 1.98823,0 3.6,1.61177 3.6,3.6 v 8.8 c 0,1.98822 1.61177,3.6 3.6,3.6 h 0.8 c 1.98823,0 3.6,1.61177 3.6,3.6 v 0.8 c 0,1.98822 -1.61177,3.6 -3.6,3.6 h -8.8 c -1.988225,0 -3.6,-1.61178 -3.6,-3.6 v -8.8 c 0,-1.98823 -1.611775,-3.6 -3.6,-3.6 h -0.8 c -1.988225,0 -3.6,-1.61178 -3.6,-3.6 v -0.8 c 0,-1.98823 -1.611775,-3.6 -3.6,-3.6 h -0.8 c -1.988225,0 -3.6,-1.61178 -3.6,-3.6 v -0.8 c 0,-1.98823 1.611775,-3.6 3.6,-3.6 h 0.8 c 1.988225,0 3.6,-1.61177 3.6,-3.6 v -0.8 c 0,-1.98823 -1.611775,-3.6 -3.6,-3.6 h -8.8 c -1.988225,0 -3.6,-1.61177 -3.6,-3.6 v -0.8 c 0,-1.98823 -1.611775,-3.6 -3.6,-3.6 h -0.8 c -1.988225,0 -3.6,-1.61177 -3.6,-3.6 v -0.8 C 64,105.61177 62.388225,104 60.4,104 H 59.6 C 57.611775,104 56,102.38823 56,100.4 V 99.6 C 56,97.611775 57.611775,96 59.6,96 h 8.8 c 1.988225,0 3.6,1.611775 3.6,3.6 v 0.8 c 0,1.98823 1.611775,3.6 3.6,3.6 h 0.8 c 1.988225,0 3.6,1.61177 3.6,3.6 v 0.8 c 0,1.98823 1.611775,3.6 3.6,3.6 h 8.8 c 1.988225,0 3.6,1.61177 3.6,3.6 v 0.8 c 0,1.98823 1.611775,3.6 3.6,3.6 h 8.8 c 1.98823,0 3.6,-1.61177 3.6,-3.6 v -0.8 c 0,-1.98823 -1.61177,-3.6 -3.6,-3.6 h -8.8 c -1.988225,0 -3.6,-1.61177 -3.6,-3.6 v -0.8 c 0,-1.98823 1.611775,-3.6 3.6,-3.6 h 0.8 c 1.98823,0 3.6,-1.61177 3.6,-3.6 v -0.8 c 0,-1.988225 1.61177,-3.6 3.6,-3.6 h 0.8 c 1.98823,0 3.6,-1.611775 3.6,-3.6 v -8.8 c 0,-1.988225 1.61177,-3.6 3.6,-3.6 h 0.8 c 1.98823,0 3.6,1.611775 3.6,3.6 v 0.8 c 0,1.988225 1.61177,3.6 3.6,3.6 h 0.8 c 1.98823,0 3.6,-1.611775 3.6,-3.6 v -0.8 c 0,-1.988225 -1.61177,-3.6 -3.6,-3.6 h -0.8 c -1.98823,0 -3.6,-1.611775 -3.6,-3.6 v -0.8 c 0,-1.988225 1.61177,-3.6 3.6,-3.6 h 8.8 c 1.98822,0 3.6,-1.611775 3.6,-3.6 V 51.6 c 0,-1.988225 -1.61178,-3.6 -3.6,-3.6 h -0.8 c -1.98823,0 -3.6,-1.611775 -3.6,-3.6 v -0.8 c 0,-1.988225 1.61177,-3.6 3.6,-3.6 h 8.8 c 1.98822,0 3.6,-1.611775 3.6,-3.6 v -0.8 c 0,-1.988225 1.61177,-3.6 3.6,-3.6 h 0.8 c 1.98822,0 3.6,1.611775 3.6,3.6 v 16.8 c 0,1.988225 -1.61178,3.6 -3.6,3.6 h -0.8 c -1.98823,0 -3.6,1.611775 -3.6,3.6 v 0.8 c 0,1.988225 1.61177,3.6 3.6,3.6 h 0.8 c 1.98822,0 3.6,1.611775 3.6,3.6 v 16.8 c 0,1.988225 1.61177,3.6 3.6,3.6 h 0.8 c 1.98822,0 3.6,-1.611775 3.6,-3.6 v -0.8 c 0,-1.988225 1.61177,-3.6 3.6,-3.6 h 0.8 c 1.98822,0 3.6,1.611775 3.6,3.6 v 16.8 c 0,1.98823 -1.61178,3.6 -3.6,3.6 h -0.8 c -1.98823,0 -3.6,1.61177 -3.6,3.6 v 8.8 c 0,1.98823 1.61177,3.6 3.6,3.6 h 8.8 c 1.98822,0 3.6,-1.61177 3.6,-3.6 v -0.8 c 0,-1.98823 1.61177,-3.6 3.6,-3.6 h 0.8 c 1.98822,0 3.6,1.61177 3.6,3.6 v 8.8 c 0,1.98823 1.61177,3.6 3.6,3.6 h 0.8 c 1.98822,0 3.6,1.61177 3.6,3.6 v 0.8 c 0,1.98822 -1.61178,3.6 -3.6,3.6 h -8.8 c -1.98823,0 -3.6,-1.61178 -3.6,-3.6 v -0.8 c 0,-1.98823 -1.61178,-3.6 -3.6,-3.6 h -8.8 c -1.98823,0 -3.6,1.61177 -3.6,3.6 v 0.8 c 0,1.98822 1.61177,3.6 3.6,3.6 h 0.8 c 1.98822,0 3.6,1.61177 3.6,3.6 v 0.8 c 0,1.98822 -1.61178,3.6 -3.6,3.6 h -0.8 c -1.98823,0 -3.6,1.61177 -3.6,3.6 v 8.8 c 0,1.98822 -1.61178,3.6 -3.6,3.6 z m -104,0 h -0.8 c -1.988225,0 -3.6,-1.61178 -3.6,-3.6 v -0.8 c 0,-1.98823 1.611775,-3.6 3.6,-3.6 h 0.8 c 1.988225,0 3.6,1.61177 3.6,3.6 v 0.8 c 0,1.98822 -1.611775,3.6 -3.6,3.6 z m 120,-8 h -0.8 c -1.98823,0 -3.6,-1.61178 -3.6,-3.6 v -0.8 c 0,-1.98823 1.61177,-3.6 3.6,-3.6 h 0.8 c 1.98822,0 3.6,1.61177 3.6,3.6 v 0.8 c 0,1.98822 -1.61178,3.6 -3.6,3.6 z m -56,0 h -0.8 c -1.98823,0 -3.6,-1.61178 -3.6,-3.6 v -0.8 c 0,-1.98823 1.61177,-3.6 3.6,-3.6 h 0.8 c 1.98823,0 3.6,1.61177 3.6,3.6 v 0.8 c 0,1.98822 -1.61177,3.6 -3.6,3.6 z m -32,0 H 59.6 c -1.988225,0 -3.6,-1.61178 -3.6,-3.6 v -0.8 c 0,-1.98823 1.611775,-3.6 3.6,-3.6 h 0.8 c 1.988225,0 3.6,-1.61178 3.6,-3.6 v -16.8 c 0,-1.98823 1.611775,-3.6 3.6,-3.6 h 0.8 c 1.988225,0 3.6,1.61177 3.6,3.6 v 16.8 c 0,1.98822 1.611775,3.6 3.6,3.6 h 8.8 c 1.988225,0 3.6,1.61177 3.6,3.6 v 0.8 c 0,1.98822 -1.611775,3.6 -3.6,3.6 z m -32,-8 h -0.8 c -1.988225,0 -3.6,-1.61178 -3.6,-3.6 v -8.8 c 0,-1.98823 1.611775,-3.6 3.6,-3.6 h 0.8 c 1.988225,0 3.6,1.61177 3.6,3.6 v 8.8 c 0,1.98822 -1.611775,3.6 -3.6,3.6 z m 176,-8 h -0.8 c -1.98823,0 -3.6,-1.61178 -3.6,-3.6 v -0.8 c 0,-1.98823 -1.61178,-3.6 -3.6,-3.6 h -24.8 c -1.98823,0 -3.6,-1.61177 -3.6,-3.6 v -0.8 c 0,-1.98823 1.61177,-3.6 3.6,-3.6 h 0.8 c 1.98822,0 3.6,-1.61177 3.6,-3.6 v -0.8 c 0,-1.98823 -1.61178,-3.6 -3.6,-3.6 h -8.8 c -1.98823,0 -3.6,-1.61177 -3.6,-3.6 v -0.8 c 0,-1.98823 1.61177,-3.6 3.6,-3.6 h 32.8 c 1.98822,0 3.6,1.61177 3.6,3.6 v 0.8 c 0,1.98823 -1.61178,3.6 -3.6,3.6 h -8.8 c -1.98823,0 -3.6,1.61177 -3.6,3.6 v 0.8 c 0,1.98823 1.61177,3.6 3.6,3.6 h 8.8 c 1.98822,0 3.6,-1.61177 3.6,-3.6 v -0.8 c 0,-1.98823 1.61177,-3.6 3.6,-3.6 h 0.8 c 1.98822,0 3.6,1.61177 3.6,3.6 v 16.8 c 0,1.98822 -1.61178,3.6 -3.6,3.6 z m -168,-16 h -8.8 c -1.988225,0 -3.6,-1.61177 -3.6,-3.6 v -0.8 c 0,-1.98823 1.611775,-3.6 3.6,-3.6 h 8.8 c 1.988225,0 3.6,1.61177 3.6,3.6 v 0.8 c 0,1.98823 -1.611775,3.6 -3.6,3.6 z m -24,-8 H 35.6 C 33.611775,112 32,110.38823 32,108.4 V 99.6 C 32,97.611775 33.611775,96 35.6,96 h 8.8 c 1.988225,0 3.6,1.611775 3.6,3.6 v 0.8 c 0,1.98823 -1.611775,3.6 -3.6,3.6 h -0.8 c -1.988225,0 -3.6,1.61177 -3.6,3.6 v 0.8 c 0,1.98823 -1.611775,3.6 -3.6,3.6 z m 192,-8 h -0.8 c -1.98823,0 -3.6,-1.61177 -3.6,-3.6 v -0.8 c 0,-1.988225 1.61177,-3.6 3.6,-3.6 h 0.8 c 1.98822,0 3.6,1.611775 3.6,3.6 v 0.8 c 0,1.98823 -1.61178,3.6 -3.6,3.6 z m -48,0 h -0.8 c -1.98823,0 -3.6,-1.61177 -3.6,-3.6 v -0.8 c 0,-1.988225 1.61177,-3.6 3.6,-3.6 h 0.8 c 1.98822,0 3.6,1.611775 3.6,3.6 v 0.8 c 0,1.98823 -1.61178,3.6 -3.6,3.6 z m -96,0 H 83.6 C 81.611775,104 80,102.38823 80,100.4 V 99.6 C 80,97.611775 81.611775,96 83.6,96 h 0.8 c 1.988225,0 3.6,1.611775 3.6,3.6 v 0.8 c 0,1.98823 -1.611775,3.6 -3.6,3.6 z m 16,-8 H 99.6 C 97.611775,96 96,94.388225 96,92.4 V 83.6 C 96,81.611775 97.611775,80 99.6,80 h 0.8 c 1.98823,0 3.6,1.611775 3.6,3.6 v 8.8 c 0,1.988225 -1.61177,3.6 -3.6,3.6 z m 128,-8 H 179.6 C 177.61177,88 176,86.388225 176,84.4 V 35.6 c 0,-1.988225 1.61177,-3.6 3.6,-3.6 h 48.8 c 1.98822,0 3.6,1.611775 3.6,3.6 v 48.8 c 0,1.988225 -1.61178,3.6 -3.6,3.6 z M 144,84.4 v -0.8 c 0,-1.988225 -1.61178,-3.6 -3.6,-3.6 h -0.8 c -1.98823,0 -3.6,1.611775 -3.6,3.6 v 0.8 c 0,1.988225 1.61177,3.6 3.6,3.6 h 0.8 c 1.98822,0 3.6,-1.611775 3.6,-3.6 z M 84.4,88 H 35.6 C 33.611775,88 32,86.388225 32,84.4 V 35.6 C 32,33.611775 33.611775,32 35.6,32 h 48.8 c 1.988225,0 3.6,1.611775 3.6,3.6 V 84.4 C 88,86.388225 86.388225,88 84.4,88 Z M 224,76.4 V 43.6 c 0,-1.988225 -1.61178,-3.6 -3.6,-3.6 h -32.8 c -1.98823,0 -3.6,1.611775 -3.6,3.6 v 32.8 c 0,1.988225 1.61177,3.6 3.6,3.6 h 32.8 c 1.98822,0 3.6,-1.611775 3.6,-3.6 z M 108.4,80 h -0.8 c -1.98823,0 -3.6,-1.611775 -3.6,-3.6 v -0.8 c 0,-1.988225 1.61177,-3.6 3.6,-3.6 h 0.8 c 1.98823,0 3.6,1.611775 3.6,3.6 v 0.8 c 0,1.988225 -1.61177,3.6 -3.6,3.6 z M 80,76.4 V 43.6 C 80,41.611775 78.388225,40 76.4,40 H 43.6 C 41.611775,40 40,41.611775 40,43.6 v 32.8 c 0,1.988225 1.611775,3.6 3.6,3.6 H 76.4 C 78.388225,80 80,78.388225 80,76.4 Z M 212.4,72 H 195.6 C 193.61177,72 192,70.388225 192,68.4 V 51.6 c 0,-1.988225 1.61177,-3.6 3.6,-3.6 h 16.8 c 1.98822,0 3.6,1.611775 3.6,3.6 v 16.8 c 0,1.988225 -1.61178,3.6 -3.6,3.6 z m -144,0 H 51.6 C 49.611775,72 48,70.388225 48,68.4 V 51.6 C 48,49.611775 49.611775,48 51.6,48 h 16.8 c 1.988225,0 3.6,1.611775 3.6,3.6 v 16.8 c 0,1.988225 -1.611775,3.6 -3.6,3.6 z m 96,-8 h -8.8 c -1.98823,0 -3.6,-1.611775 -3.6,-3.6 v -0.8 c 0,-1.988225 1.61177,-3.6 3.6,-3.6 h 8.8 c 1.98822,0 3.6,1.611775 3.6,3.6 v 0.8 c 0,1.988225 -1.61178,3.6 -3.6,3.6 z m -48,0 h -8.8 c -1.98823,0 -3.6,-1.611775 -3.6,-3.6 v -8.8 c 0,-1.988225 1.61177,-3.6 3.6,-3.6 h 0.8 c 1.98823,0 3.6,1.611775 3.6,3.6 v 0.8 c 0,1.988225 1.61177,3.6 3.6,3.6 h 0.8 c 1.98823,0 3.6,1.611775 3.6,3.6 v 0.8 c 0,1.988225 -1.61177,3.6 -3.6,3.6 z m 48,-16 h -0.8 c -1.98823,0 -3.6,-1.611775 -3.6,-3.6 v -0.8 c 0,-1.988225 1.61177,-3.6 3.6,-3.6 h 0.8 c 1.98822,0 3.6,1.611775 3.6,3.6 v 0.8 c 0,1.988225 -1.61178,3.6 -3.6,3.6 z m -64,-8 H 99.6 C 97.611775,40 96,38.388225 96,36.4 V 35.6 C 96,33.611775 97.611775,32 99.6,32 h 0.8 c 1.98823,0 3.6,1.611775 3.6,3.6 v 0.8 c 0,1.988225 -1.61177,3.6 -3.6,3.6 z"
           id="path878" />
      </g>
    </g>
    <g
       inkscape:label="QR Code: https://jdll.org/install-party/"
       transform="matrix(0.264583,0,0,0.264583,104.984,148.5)"
       id="g936">
      <rect
         x="0"
         y="0"
         width="264"
         height="264"
         style="fill:#ffffff;stroke:none"
         id="rect930" />
      <g
         style="fill:#000000;stroke:none"
         id="g934">
        <rect
           x="32"
           y="32"
           width="8"
           height="8"
           id="rect932" />
      </g>
    </g>
    <g
       inkscape:label="QR Code: https://jdll.org/install-party/"
       transform="matrix(0.264583,0,0,0.264583,104.984,148.5)"
       id="g998">
      <rect
         x="0"
         y="0"
         width="264"
         height="264"
         style="fill:#ffffff;stroke:none"
         id="rect992" />
      <g
         style="fill:#000000;stroke:none"
         id="g996">
        <path
           d="m 32,32 h 8 v 8 h -8 z m 8,0 h 8 v 8 h -8 z m 8,0 h 8 v 8 h -8 z m 8,0 h 8 v 8 h -8 z m 8,0 h 8 v 8 h -8 z m 8,0 h 8 v 8 h -8 z m 8,0 h 8 v 8 h -8 z m 16,0 h 8 v 8 h -8 z m 48,0 h 8 v 8 h -8 z m 32,0 h 8 v 8 h -8 z m 8,0 h 8 v 8 h -8 z m 8,0 h 8 v 8 h -8 z m 8,0 h 8 v 8 h -8 z m 8,0 h 8 v 8 h -8 z m 8,0 h 8 v 8 h -8 z m 8,0 h 8 v 8 h -8 z M 32,40 h 8 v 8 h -8 z m 48,0 h 8 v 8 h -8 z m 48,0 h 8 v 8 h -8 z m 8,0 h 8 v 8 h -8 z m 8,0 h 8 v 8 h -8 z m 16,0 h 8 v 8 h -8 z m 16,0 h 8 v 8 h -8 z m 48,0 h 8 v 8 h -8 z M 32,48 h 8 v 8 h -8 z m 16,0 h 8 v 8 h -8 z m 8,0 h 8 v 8 h -8 z m 8,0 h 8 v 8 h -8 z m 16,0 h 8 v 8 h -8 z m 24,0 h 8 v 8 h -8 z m 32,0 h 8 v 8 h -8 z m 8,0 h 8 v 8 h -8 z m 32,0 h 8 v 8 h -8 z m 16,0 h 8 v 8 h -8 z m 8,0 h 8 v 8 h -8 z m 8,0 h 8 v 8 h -8 z m 16,0 h 8 v 8 h -8 z M 32,56 h 8 v 8 h -8 z m 16,0 h 8 v 8 h -8 z m 8,0 h 8 v 8 h -8 z m 8,0 h 8 v 8 h -8 z m 16,0 h 8 v 8 h -8 z m 24,0 h 8 v 8 h -8 z m 8,0 h 8 v 8 h -8 z m 24,0 h 8 v 8 h -8 z m 16,0 h 8 v 8 h -8 z m 8,0 h 8 v 8 h -8 z m 16,0 h 8 v 8 h -8 z m 16,0 h 8 v 8 h -8 z m 8,0 h 8 v 8 h -8 z m 8,0 h 8 v 8 h -8 z m 16,0 h 8 v 8 h -8 z M 32,64 h 8 v 8 h -8 z m 16,0 h 8 v 8 h -8 z m 8,0 h 8 v 8 h -8 z m 8,0 h 8 v 8 h -8 z m 16,0 h 8 v 8 h -8 z m 56,0 h 8 v 8 h -8 z m 8,0 h 8 v 8 h -8 z m 32,0 h 8 v 8 h -8 z m 16,0 h 8 v 8 h -8 z m 8,0 h 8 v 8 h -8 z m 8,0 h 8 v 8 h -8 z m 16,0 h 8 v 8 h -8 z M 32,72 h 8 v 8 h -8 z m 48,0 h 8 v 8 h -8 z m 24,0 h 8 v 8 h -8 z m 16,0 h 8 v 8 h -8 z m 8,0 h 8 v 8 h -8 z m 8,0 h 8 v 8 h -8 z m 8,0 h 8 v 8 h -8 z m 32,0 h 8 v 8 h -8 z m 48,0 h 8 v 8 h -8 z M 32,80 h 8 v 8 h -8 z m 8,0 h 8 v 8 h -8 z m 8,0 h 8 v 8 h -8 z m 8,0 h 8 v 8 h -8 z m 8,0 h 8 v 8 h -8 z m 8,0 h 8 v 8 h -8 z m 8,0 h 8 v 8 h -8 z m 16,0 h 8 v 8 h -8 z m 16,0 h 8 v 8 h -8 z m 16,0 h 8 v 8 h -8 z m 16,0 h 8 v 8 h -8 z m 16,0 h 8 v 8 h -8 z m 16,0 h 8 v 8 h -8 z m 8,0 h 8 v 8 h -8 z m 8,0 h 8 v 8 h -8 z m 8,0 h 8 v 8 h -8 z m 8,0 h 8 v 8 h -8 z m 8,0 h 8 v 8 h -8 z m 8,0 h 8 v 8 h -8 z M 96,88 h 8 v 8 h -8 z m 16,0 h 8 v 8 h -8 z m 8,0 h 8 v 8 h -8 z m 8,0 h 8 v 8 h -8 z m 8,0 h 8 v 8 h -8 z m 8,0 h 8 v 8 h -8 z m 8,0 h 8 v 8 h -8 z m 8,0 h 8 v 8 h -8 z M 32,96 h 8 v 8 h -8 z m 8,0 h 8 v 8 h -8 z m 16,0 h 8 v 8 h -8 z m 8,0 h 8 v 8 h -8 z m 16,0 h 8 v 8 h -8 z m 24,0 h 8 v 8 h -8 z m 8,0 h 8 v 8 h -8 z m 32,0 h 8 v 8 h -8 z m 8,0 h 8 v 8 h -8 z m 8,0 h 8 v 8 h -8 z m 16,0 h 8 v 8 h -8 z m 48,0 h 8 v 8 h -8 z m -192,8 h 8 v 8 h -8 z m 32,0 h 8 v 8 h -8 z m 8,0 h 8 v 8 h -8 z m 24,0 h 8 v 8 h -8 z m 8,0 h 8 v 8 h -8 z m 8,0 h 8 v 8 h -8 z m 8,0 h 8 v 8 h -8 z m 32,0 h 8 v 8 h -8 z m 32,0 h 8 v 8 h -8 z m 8,0 h 8 v 8 h -8 z m 8,0 h 8 v 8 h -8 z m 8,0 h 8 v 8 h -8 z m 8,0 h 8 v 8 h -8 z m -168,8 h 8 v 8 h -8 z m 8,0 h 8 v 8 h -8 z m 16,0 h 8 v 8 h -8 z m 8,0 h 8 v 8 h -8 z m 8,0 h 8 v 8 h -8 z m 24,0 h 8 v 8 h -8 z m 8,0 h 8 v 8 h -8 z m 16,0 h 8 v 8 h -8 z m 8,0 h 8 v 8 h -8 z m 8,0 h 8 v 8 h -8 z m 24,0 h 8 v 8 h -8 z m 24,0 h 8 v 8 h -8 z m 24,0 h 8 v 8 h -8 z m -192,8 h 8 v 8 h -8 z m 32,0 h 8 v 8 h -8 z m 24,0 h 8 v 8 h -8 z m 8,0 h 8 v 8 h -8 z m 8,0 h 8 v 8 h -8 z m 8,0 h 8 v 8 h -8 z m 8,0 h 8 v 8 h -8 z m 8,0 h 8 v 8 h -8 z m 16,0 h 8 v 8 h -8 z m 8,0 h 8 v 8 h -8 z m 8,0 h 8 v 8 h -8 z m 8,0 h 8 v 8 h -8 z m 8,0 h 8 v 8 h -8 z m 16,0 h 8 v 8 h -8 z m 8,0 h 8 v 8 h -8 z m 8,0 h 8 v 8 h -8 z m 8,0 h 8 v 8 h -8 z m 8,0 h 8 v 8 h -8 z m -192,8 h 8 v 8 h -8 z m 16,0 h 8 v 8 h -8 z m 16,0 h 8 v 8 h -8 z m 16,0 h 8 v 8 h -8 z m 8,0 h 8 v 8 h -8 z m 16,0 h 8 v 8 h -8 z m 16,0 h 8 v 8 h -8 z m 8,0 h 8 v 8 h -8 z m 24,0 h 8 v 8 h -8 z m 24,0 h 8 v 8 h -8 z m 8,0 h 8 v 8 h -8 z m 40,0 h 8 v 8 h -8 z m -192,8 h 8 v 8 h -8 z m 16,0 h 8 v 8 h -8 z m 16,0 h 8 v 8 h -8 z m 24,0 h 8 v 8 h -8 z m 8,0 h 8 v 8 h -8 z m 24,0 h 8 v 8 h -8 z m 16,0 h 8 v 8 h -8 z m 16,0 h 8 v 8 h -8 z m 8,0 h 8 v 8 h -8 z m 32,0 h 8 v 8 h -8 z m 24,0 h 8 v 8 h -8 z m -184,8 h 8 v 8 h -8 z m 8,0 h 8 v 8 h -8 z m 16,0 h 8 v 8 h -8 z m 8,0 h 8 v 8 h -8 z m 8,0 h 8 v 8 h -8 z m 8,0 h 8 v 8 h -8 z m 16,0 h 8 v 8 h -8 z m 16,0 h 8 v 8 h -8 z m 16,0 h 8 v 8 h -8 z m 8,0 h 8 v 8 h -8 z m 8,0 h 8 v 8 h -8 z m 8,0 h 8 v 8 h -8 z m 16,0 h 8 v 8 h -8 z m 24,0 h 8 v 8 h -8 z m 8,0 h 8 v 8 h -8 z m 8,0 h 8 v 8 h -8 z m 8,0 h 8 v 8 h -8 z m 8,0 h 8 v 8 h -8 z m -192,8 h 8 v 8 h -8 z m 16,0 h 8 v 8 h -8 z m 48,0 h 8 v 8 h -8 z m 8,0 h 8 v 8 h -8 z m 24,0 h 8 v 8 h -8 z m 16,0 h 8 v 8 h -8 z m 8,0 h 8 v 8 h -8 z m 24,0 h 8 v 8 h -8 z m 8,0 h 8 v 8 h -8 z m 16,0 h 8 v 8 h -8 z m 8,0 h 8 v 8 h -8 z m 16,0 h 8 v 8 h -8 z m -192,8 h 8 v 8 h -8 z m 24,0 h 8 v 8 h -8 z m 8,0 h 8 v 8 h -8 z m 8,0 h 8 v 8 h -8 z m 8,0 h 8 v 8 h -8 z m 40,0 h 8 v 8 h -8 z m 16,0 h 8 v 8 h -8 z m 24,0 h 8 v 8 h -8 z m 8,0 h 8 v 8 h -8 z m 8,0 h 8 v 8 h -8 z m 8,0 h 8 v 8 h -8 z m 8,0 h 8 v 8 h -8 z m 16,0 h 8 v 8 h -8 z m 8,0 h 8 v 8 h -8 z m -120,8 h 8 v 8 h -8 z m 8,0 h 8 v 8 h -8 z m 56,0 h 8 v 8 h -8 z m 32,0 h 8 v 8 h -8 z m 16,0 h 8 v 8 h -8 z m 8,0 h 8 v 8 h -8 z m -184,8 h 8 v 8 h -8 z m 8,0 h 8 v 8 h -8 z m 8,0 h 8 v 8 h -8 z m 8,0 h 8 v 8 h -8 z m 8,0 h 8 v 8 h -8 z m 8,0 h 8 v 8 h -8 z m 8,0 h 8 v 8 h -8 z m 40,0 h 8 v 8 h -8 z m 16,0 h 8 v 8 h -8 z m 8,0 h 8 v 8 h -8 z m 16,0 h 8 v 8 h -8 z m 16,0 h 8 v 8 h -8 z m 16,0 h 8 v 8 h -8 z m 32,0 h 8 v 8 h -8 z m -192,8 h 8 v 8 h -8 z m 48,0 h 8 v 8 h -8 z m 32,0 h 8 v 8 h -8 z m 24,0 h 8 v 8 h -8 z m 16,0 h 8 v 8 h -8 z m 8,0 h 8 v 8 h -8 z m 32,0 h 8 v 8 h -8 z m 24,0 h 8 v 8 h -8 z m -184,8 h 8 v 8 h -8 z m 16,0 h 8 v 8 h -8 z m 8,0 h 8 v 8 h -8 z m 8,0 h 8 v 8 h -8 z m 16,0 h 8 v 8 h -8 z m 16,0 h 8 v 8 h -8 z m 24,0 h 8 v 8 h -8 z m 8,0 h 8 v 8 h -8 z m 16,0 h 8 v 8 h -8 z m 8,0 h 8 v 8 h -8 z m 8,0 h 8 v 8 h -8 z m 8,0 h 8 v 8 h -8 z m 8,0 h 8 v 8 h -8 z m 8,0 h 8 v 8 h -8 z m 8,0 h 8 v 8 h -8 z m 24,0 h 8 v 8 h -8 z m -184,8 h 8 v 8 h -8 z m 16,0 h 8 v 8 h -8 z m 8,0 h 8 v 8 h -8 z m 8,0 h 8 v 8 h -8 z m 16,0 h 8 v 8 h -8 z m 16,0 h 8 v 8 h -8 z m 24,0 h 8 v 8 h -8 z m 8,0 h 8 v 8 h -8 z m 8,0 h 8 v 8 h -8 z m 8,0 h 8 v 8 h -8 z m 24,0 h 8 v 8 h -8 z m 8,0 h 8 v 8 h -8 z m 40,0 h 8 v 8 h -8 z m 8,0 h 8 v 8 h -8 z m -192,8 h 8 v 8 h -8 z m 16,0 h 8 v 8 h -8 z m 8,0 h 8 v 8 h -8 z m 8,0 h 8 v 8 h -8 z m 16,0 h 8 v 8 h -8 z m 24,0 h 8 v 8 h -8 z m 16,0 h 8 v 8 h -8 z m 8,0 h 8 v 8 h -8 z m 32,0 h 8 v 8 h -8 z m 8,0 h 8 v 8 h -8 z m 24,0 h 8 v 8 h -8 z m 8,0 h 8 v 8 h -8 z m 8,0 h 8 v 8 h -8 z m 8,0 h 8 v 8 h -8 z m 8,0 h 8 v 8 h -8 z m -192,8 h 8 v 8 h -8 z m 48,0 h 8 v 8 h -8 z m 16,0 h 8 v 8 h -8 z m 8,0 h 8 v 8 h -8 z m 16,0 h 8 v 8 h -8 z m 64,0 h 8 v 8 h -8 z m 8,0 h 8 v 8 h -8 z m 16,0 h 8 v 8 h -8 z m 8,0 h 8 v 8 h -8 z m 8,0 h 8 v 8 h -8 z m -192,8 h 8 v 8 h -8 z m 8,0 h 8 v 8 h -8 z m 8,0 h 8 v 8 h -8 z m 8,0 h 8 v 8 h -8 z m 8,0 h 8 v 8 h -8 z m 8,0 h 8 v 8 h -8 z m 8,0 h 8 v 8 h -8 z m 16,0 h 8 v 8 h -8 z m 16,0 h 8 v 8 h -8 z m 16,0 h 8 v 8 h -8 z m 24,0 h 8 v 8 h -8 z m 8,0 h 8 v 8 h -8 z m 8,0 h 8 v 8 h -8 z m 8,0 h 8 v 8 h -8 z m 24,0 h 8 v 8 h -8 z m 24,0 h 8 v 8 h -8 z"
           id="path994" />
      </g>
    </g>
  </g>
  <g
     inkscape:groupmode="layer"
     id="layer2"
     inkscape:label="Calque 2"
     style="display:inline"
     transform="translate(-3.0598759,-15.617298)">
    <g
       inkscape:label="QR Code: https://jdll.org/flash-party/"
       transform="matrix(0.264583,0,0,0.264583,3.0598759,15.617298)"
       id="g1068">
      <rect
         x="0"
         y="0"
         width="264"
         height="264"
         style="fill:#ffffff;stroke:none"
         id="rect1062" />
      <g
         style="fill:#000000;stroke:none"
         id="g1066">
        <path
           d="m 32,32 h 8 v 8 h -8 z m 8,0 h 8 v 8 h -8 z m 8,0 h 8 v 8 h -8 z m 8,0 h 8 v 8 h -8 z m 8,0 h 8 v 8 h -8 z m 8,0 h 8 v 8 h -8 z m 8,0 h 8 v 8 h -8 z m 16,0 h 8 v 8 h -8 z m 16,0 h 8 v 8 h -8 z m 8,0 h 8 v 8 h -8 z m 8,0 h 8 v 8 h -8 z m 8,0 h 8 v 8 h -8 z m 8,0 h 8 v 8 h -8 z m 32,0 h 8 v 8 h -8 z m 8,0 h 8 v 8 h -8 z m 8,0 h 8 v 8 h -8 z m 8,0 h 8 v 8 h -8 z m 8,0 h 8 v 8 h -8 z m 8,0 h 8 v 8 h -8 z m 8,0 h 8 v 8 h -8 z M 32,40 h 8 v 8 h -8 z m 48,0 h 8 v 8 h -8 z m 24,0 h 8 v 8 h -8 z m 8,0 h 8 v 8 h -8 z m 48,0 h 8 v 8 h -8 z m 16,0 h 8 v 8 h -8 z m 48,0 h 8 v 8 h -8 z M 32,48 h 8 v 8 h -8 z m 16,0 h 8 v 8 h -8 z m 8,0 h 8 v 8 h -8 z m 8,0 h 8 v 8 h -8 z m 16,0 h 8 v 8 h -8 z m 32,0 h 8 v 8 h -8 z m 8,0 h 8 v 8 h -8 z m 16,0 h 8 v 8 h -8 z m 40,0 h 8 v 8 h -8 z m 16,0 h 8 v 8 h -8 z m 8,0 h 8 v 8 h -8 z m 8,0 h 8 v 8 h -8 z m 16,0 h 8 v 8 h -8 z M 32,56 h 8 v 8 h -8 z m 16,0 h 8 v 8 h -8 z m 8,0 h 8 v 8 h -8 z m 8,0 h 8 v 8 h -8 z m 16,0 h 8 v 8 h -8 z m 40,0 h 8 v 8 h -8 z m 8,0 h 8 v 8 h -8 z m 8,0 h 8 v 8 h -8 z m 16,0 h 8 v 8 h -8 z m 8,0 h 8 v 8 h -8 z m 16,0 h 8 v 8 h -8 z m 16,0 h 8 v 8 h -8 z m 8,0 h 8 v 8 h -8 z m 8,0 h 8 v 8 h -8 z m 16,0 h 8 v 8 h -8 z M 32,64 h 8 v 8 h -8 z m 16,0 h 8 v 8 h -8 z m 8,0 h 8 v 8 h -8 z m 8,0 h 8 v 8 h -8 z m 16,0 h 8 v 8 h -8 z m 24,0 h 8 v 8 h -8 z m 24,0 h 8 v 8 h -8 z m 8,0 h 8 v 8 h -8 z m 8,0 h 8 v 8 h -8 z m 32,0 h 8 v 8 h -8 z m 16,0 h 8 v 8 h -8 z m 8,0 h 8 v 8 h -8 z m 8,0 h 8 v 8 h -8 z m 16,0 h 8 v 8 h -8 z M 32,72 h 8 v 8 h -8 z m 48,0 h 8 v 8 h -8 z m 32,0 h 8 v 8 h -8 z m 8,0 h 8 v 8 h -8 z m 24,0 h 8 v 8 h -8 z m 32,0 h 8 v 8 h -8 z m 48,0 h 8 v 8 h -8 z M 32,80 h 8 v 8 h -8 z m 8,0 h 8 v 8 h -8 z m 8,0 h 8 v 8 h -8 z m 8,0 h 8 v 8 h -8 z m 8,0 h 8 v 8 h -8 z m 8,0 h 8 v 8 h -8 z m 8,0 h 8 v 8 h -8 z m 16,0 h 8 v 8 h -8 z m 16,0 h 8 v 8 h -8 z m 16,0 h 8 v 8 h -8 z m 16,0 h 8 v 8 h -8 z m 16,0 h 8 v 8 h -8 z m 16,0 h 8 v 8 h -8 z m 8,0 h 8 v 8 h -8 z m 8,0 h 8 v 8 h -8 z m 8,0 h 8 v 8 h -8 z m 8,0 h 8 v 8 h -8 z m 8,0 h 8 v 8 h -8 z m 8,0 h 8 v 8 h -8 z M 96,88 h 8 v 8 h -8 z m 16,0 h 8 v 8 h -8 z m 16,0 h 8 v 8 h -8 z m 8,0 h 8 v 8 h -8 z m 8,0 h 8 v 8 h -8 z m 8,0 h 8 v 8 h -8 z m 8,0 h 8 v 8 h -8 z M 32,96 h 8 v 8 h -8 z m 8,0 h 8 v 8 h -8 z m 16,0 h 8 v 8 h -8 z m 8,0 h 8 v 8 h -8 z m 16,0 h 8 v 8 h -8 z m 24,0 h 8 v 8 h -8 z m 8,0 h 8 v 8 h -8 z m 8,0 h 8 v 8 h -8 z m 24,0 h 8 v 8 h -8 z m 8,0 h 8 v 8 h -8 z m 8,0 h 8 v 8 h -8 z m 16,0 h 8 v 8 h -8 z m 48,0 h 8 v 8 h -8 z m -160,8 h 8 v 8 h -8 z m 32,0 h 8 v 8 h -8 z m 8,0 h 8 v 8 h -8 z m 16,0 h 8 v 8 h -8 z m 24,0 h 8 v 8 h -8 z m 8,0 h 8 v 8 h -8 z m 32,0 h 8 v 8 h -8 z m 8,0 h 8 v 8 h -8 z m 8,0 h 8 v 8 h -8 z m 8,0 h 8 v 8 h -8 z m 8,0 h 8 v 8 h -8 z m -176,8 h 8 v 8 h -8 z m 8,0 h 8 v 8 h -8 z m 16,0 h 8 v 8 h -8 z m 8,0 h 8 v 8 h -8 z m 8,0 h 8 v 8 h -8 z m 16,0 h 8 v 8 h -8 z m 16,0 h 8 v 8 h -8 z m 8,0 h 8 v 8 h -8 z m 8,0 h 8 v 8 h -8 z m 16,0 h 8 v 8 h -8 z m 8,0 h 8 v 8 h -8 z m 24,0 h 8 v 8 h -8 z m 24,0 h 8 v 8 h -8 z m 24,0 h 8 v 8 h -8 z m -184,8 h 8 v 8 h -8 z m 8,0 h 8 v 8 h -8 z m 16,0 h 8 v 8 h -8 z m 8,0 h 8 v 8 h -8 z m 16,0 h 8 v 8 h -8 z m 16,0 h 8 v 8 h -8 z m 8,0 h 8 v 8 h -8 z m 8,0 h 8 v 8 h -8 z m 24,0 h 8 v 8 h -8 z m 8,0 h 8 v 8 h -8 z m 8,0 h 8 v 8 h -8 z m 8,0 h 8 v 8 h -8 z m 8,0 h 8 v 8 h -8 z m 16,0 h 8 v 8 h -8 z m 8,0 h 8 v 8 h -8 z m 8,0 h 8 v 8 h -8 z m 8,0 h 8 v 8 h -8 z m 8,0 h 8 v 8 h -8 z m -184,8 h 8 v 8 h -8 z m 8,0 h 8 v 8 h -8 z m 16,0 h 8 v 8 h -8 z m 16,0 h 8 v 8 h -8 z m 8,0 h 8 v 8 h -8 z m 8,0 h 8 v 8 h -8 z m 8,0 h 8 v 8 h -8 z m 16,0 h 8 v 8 h -8 z m 32,0 h 8 v 8 h -8 z m 24,0 h 8 v 8 h -8 z m 8,0 h 8 v 8 h -8 z m 40,0 h 8 v 8 h -8 z m -192,8 h 8 v 8 h -8 z m 24,0 h 8 v 8 h -8 z m 16,0 h 8 v 8 h -8 z m 16,0 h 8 v 8 h -8 z m 32,0 h 8 v 8 h -8 z m 16,0 h 8 v 8 h -8 z m 16,0 h 8 v 8 h -8 z m 8,0 h 8 v 8 h -8 z m 32,0 h 8 v 8 h -8 z m 24,0 h 8 v 8 h -8 z m -184,8 h 8 v 8 h -8 z m 8,0 h 8 v 8 h -8 z m 16,0 h 8 v 8 h -8 z m 8,0 h 8 v 8 h -8 z m 8,0 h 8 v 8 h -8 z m 8,0 h 8 v 8 h -8 z m 8,0 h 8 v 8 h -8 z m 24,0 h 8 v 8 h -8 z m 16,0 h 8 v 8 h -8 z m 24,0 h 8 v 8 h -8 z m 16,0 h 8 v 8 h -8 z m 24,0 h 8 v 8 h -8 z m 8,0 h 8 v 8 h -8 z m 8,0 h 8 v 8 h -8 z m 8,0 h 8 v 8 h -8 z m 8,0 h 8 v 8 h -8 z m -192,8 h 8 v 8 h -8 z m 40,0 h 8 v 8 h -8 z m 32,0 h 8 v 8 h -8 z m 8,0 h 8 v 8 h -8 z m 8,0 h 8 v 8 h -8 z m 8,0 h 8 v 8 h -8 z m 24,0 h 8 v 8 h -8 z m 24,0 h 8 v 8 h -8 z m 8,0 h 8 v 8 h -8 z m 16,0 h 8 v 8 h -8 z m 8,0 h 8 v 8 h -8 z m 16,0 h 8 v 8 h -8 z m -192,8 h 8 v 8 h -8 z m 16,0 h 8 v 8 h -8 z m 16,0 h 8 v 8 h -8 z m 8,0 h 8 v 8 h -8 z m 8,0 h 8 v 8 h -8 z m 8,0 h 8 v 8 h -8 z m 8,0 h 8 v 8 h -8 z m 8,0 h 8 v 8 h -8 z m 16,0 h 8 v 8 h -8 z m 16,0 h 8 v 8 h -8 z m 24,0 h 8 v 8 h -8 z m 8,0 h 8 v 8 h -8 z m 8,0 h 8 v 8 h -8 z m 8,0 h 8 v 8 h -8 z m 8,0 h 8 v 8 h -8 z m 16,0 h 8 v 8 h -8 z m 8,0 h 8 v 8 h -8 z m -120,8 h 8 v 8 h -8 z m 16,0 h 8 v 8 h -8 z m 24,0 h 8 v 8 h -8 z m 24,0 h 8 v 8 h -8 z m 32,0 h 8 v 8 h -8 z m 16,0 h 8 v 8 h -8 z m 8,0 h 8 v 8 h -8 z m -184,8 h 8 v 8 h -8 z m 8,0 h 8 v 8 h -8 z m 8,0 h 8 v 8 h -8 z m 8,0 h 8 v 8 h -8 z m 8,0 h 8 v 8 h -8 z m 8,0 h 8 v 8 h -8 z m 8,0 h 8 v 8 h -8 z m 24,0 h 8 v 8 h -8 z m 16,0 h 8 v 8 h -8 z m 16,0 h 8 v 8 h -8 z m 8,0 h 8 v 8 h -8 z m 16,0 h 8 v 8 h -8 z m 16,0 h 8 v 8 h -8 z m 16,0 h 8 v 8 h -8 z m 32,0 h 8 v 8 h -8 z m -192,8 h 8 v 8 h -8 z m 48,0 h 8 v 8 h -8 z m 48,0 h 8 v 8 h -8 z m 8,0 h 8 v 8 h -8 z m 8,0 h 8 v 8 h -8 z m 8,0 h 8 v 8 h -8 z m 8,0 h 8 v 8 h -8 z m 32,0 h 8 v 8 h -8 z m 24,0 h 8 v 8 h -8 z m 8,0 h 8 v 8 h -8 z m -192,8 h 8 v 8 h -8 z m 16,0 h 8 v 8 h -8 z m 8,0 h 8 v 8 h -8 z m 8,0 h 8 v 8 h -8 z m 16,0 h 8 v 8 h -8 z m 16,0 h 8 v 8 h -8 z m 32,0 h 8 v 8 h -8 z m 24,0 h 8 v 8 h -8 z m 8,0 h 8 v 8 h -8 z m 8,0 h 8 v 8 h -8 z m 8,0 h 8 v 8 h -8 z m 8,0 h 8 v 8 h -8 z m 8,0 h 8 v 8 h -8 z m 24,0 h 8 v 8 h -8 z m -184,8 h 8 v 8 h -8 z m 16,0 h 8 v 8 h -8 z m 8,0 h 8 v 8 h -8 z m 8,0 h 8 v 8 h -8 z m 16,0 h 8 v 8 h -8 z m 16,0 h 8 v 8 h -8 z m 24,0 h 8 v 8 h -8 z m 16,0 h 8 v 8 h -8 z m 8,0 h 8 v 8 h -8 z m 24,0 h 8 v 8 h -8 z m 8,0 h 8 v 8 h -8 z m 40,0 h 8 v 8 h -8 z m 8,0 h 8 v 8 h -8 z m -192,8 h 8 v 8 h -8 z m 16,0 h 8 v 8 h -8 z m 8,0 h 8 v 8 h -8 z m 8,0 h 8 v 8 h -8 z m 16,0 h 8 v 8 h -8 z m 24,0 h 8 v 8 h -8 z m 16,0 h 8 v 8 h -8 z m 8,0 h 8 v 8 h -8 z m 32,0 h 8 v 8 h -8 z m 8,0 h 8 v 8 h -8 z m 24,0 h 8 v 8 h -8 z m 8,0 h 8 v 8 h -8 z m 8,0 h 8 v 8 h -8 z m 8,0 h 8 v 8 h -8 z m 8,0 h 8 v 8 h -8 z m -192,8 h 8 v 8 h -8 z m 48,0 h 8 v 8 h -8 z m 16,0 h 8 v 8 h -8 z m 8,0 h 8 v 8 h -8 z m 16,0 h 8 v 8 h -8 z m 8,0 h 8 v 8 h -8 z m 16,0 h 8 v 8 h -8 z m 40,0 h 8 v 8 h -8 z m 8,0 h 8 v 8 h -8 z m 16,0 h 8 v 8 h -8 z m 8,0 h 8 v 8 h -8 z m 8,0 h 8 v 8 h -8 z m -192,8 h 8 v 8 h -8 z m 8,0 h 8 v 8 h -8 z m 8,0 h 8 v 8 h -8 z m 8,0 h 8 v 8 h -8 z m 8,0 h 8 v 8 h -8 z m 8,0 h 8 v 8 h -8 z m 8,0 h 8 v 8 h -8 z m 16,0 h 8 v 8 h -8 z m 8,0 h 8 v 8 h -8 z m 8,0 h 8 v 8 h -8 z m 8,0 h 8 v 8 h -8 z m 32,0 h 8 v 8 h -8 z m 8,0 h 8 v 8 h -8 z m 8,0 h 8 v 8 h -8 z m 8,0 h 8 v 8 h -8 z m 24,0 h 8 v 8 h -8 z m 24,0 h 8 v 8 h -8 z"
           id="path1064" />
      </g>
    </g>
  </g>
</svg>
